{
"type": "FeatureCollection",
"features": [
{ "type": "Feature", "properties": { "image": "FPWW0220021_RGB1_20180424_111952", "plot_label": "FPWW0220021", "type": "soil", "camera_pos_world_x": null, "camera_pos_world_y": null, "camera_pos_world_z": null, "c0_zenith_angle": null, "c1_zenith_angle": null, "c2_zenith_angle": null, "c3_zenith_angle": null, "c0_azimuth_angle": null, "c1_azimuth_angle": null, "c2_azimuth_angle": null, "c3_azimuth_angle": null }, "geometry": { "type": "Polygon", "coordinates": [ [ [ 3343.4951171875, 3392.5361328125 ], [ 863.55303955078125, 3319.947021484375 ], [ 743.98883056640625, 1595.027099609375 ], [ 3349.20654296875, 1548.2353515625 ], [ 3343.4951171875, 3392.5361328125 ] ] ] } },
{ "type": "Feature", "properties": { "image": "FPWW0220021_RGB1_20180424_111952", "plot_label": "FPWW0220021", "type": "canopy", "camera_pos_world_x": 2693755.7592208455, "camera_pos_world_y": 1256246.480352106, "camera_pos_world_z": 558.70242164611489, "c0_zenith_angle": 0.40623529386809532, "c1_zenith_angle": 0.61172679353237758, "c2_zenith_angle": 0.51192583796202396, "c3_zenith_angle": 0.057128620288594778, "c0_azimuth_angle": 5.4517843114333493, "c1_azimuth_angle": 0.00092034778184668653, "c2_azimuth_angle": 0.57948476194935417, "c3_azimuth_angle": 5.9947905534753483 }, "geometry": { "type": "Polygon", "coordinates": [ [ [ 3321.642260045720832, 3526.201516726624504 ], [ 791.625702944138538, 3425.323491846839715 ], [ 644.222709168264828, 1567.623914782444444 ], [ 3311.425504682091741, 1537.958412738259995 ], [ 3321.642260045720832, 3526.201516726624504 ] ] ] } }
]
}
