{
"type": "FeatureCollection",
"features": [
{ "type": "Feature", "properties": { "image": "FPWW0220020_RGB1_20180323_142853", "plot_label": "FPWW0220020", "type": "soil", "camera_pos_world_x": null, "camera_pos_world_y": null, "camera_pos_world_z": null, "c0_zenith_angle": null, "c1_zenith_angle": null, "c2_zenith_angle": null, "c3_zenith_angle": null, "c0_azimuth_angle": null, "c1_azimuth_angle": null, "c2_azimuth_angle": null, "c3_azimuth_angle": null }, "geometry": { "type": "Polygon", "coordinates": [ [ [ 3391.140380859375, 3310.992431640625 ], [ 938.703369140625, 3224.503173828125 ], [ 831.146728515625, 1551.0740966796875 ], [ 3366.278564453125, 1523.254638671875 ], [ 3391.140380859375, 3310.992431640625 ] ] ] } },
{ "type": "Feature", "properties": { "image": "FPWW0220020_RGB1_20180323_142853", "plot_label": "FPWW0220020", "type": "canopy", "camera_pos_world_x": 2693757.1565647167, "camera_pos_world_y": 1256245.1410343098, "camera_pos_world_z": 558.86595774302259, "c0_zenith_angle": 0.34541606647333101, "c1_zenith_angle": 0.56035951646396565, "c2_zenith_angle": 0.47996187663922307, "c3_zenith_angle": 0.019696128098720234, "c0_azimuth_angle": 5.4244202298593009, "c1_azimuth_angle": 0.053088294983805184, "c2_azimuth_angle": 0.67871455028922156, "c3_azimuth_angle": 1.0932268145556501 }, "geometry": { "type": "Polygon", "coordinates": [ [ [ 3391.140380859375, 3310.992431640625 ], [ 938.703369140625, 3224.503173828125 ], [ 831.146728515625, 1551.0740966796875 ], [ 3366.278564453125, 1523.254638671875 ], [ 3391.140380859375, 3310.992431640625 ] ] ] } }
]
}
