{
"type": "FeatureCollection",
"features": [
{ "type": "Feature", "properties": { "image": "FPWW0220020_RGB1_20180606_102357", "plot_label": "FPWW0220020", "type": "soil", "camera_pos_world_x": null, "camera_pos_world_y": null, "camera_pos_world_z": null, "c0_zenith_angle": null, "c1_zenith_angle": null, "c2_zenith_angle": null, "c3_zenith_angle": null, "c0_azimuth_angle": null, "c1_azimuth_angle": null, "c2_azimuth_angle": null, "c3_azimuth_angle": null }, "geometry": { "type": "Polygon", "coordinates": [ [ [ 3374.494140625, 3311.990234375 ], [ 832.7042236328125, 3216.4033203125 ], [ 713.2176513671875, 1476.2091064453125 ], [ 3336.185791015625, 1436.30322265625 ], [ 3374.494140625, 3311.990234375 ] ] ] } },
{ "type": "Feature", "properties": { "image": "FPWW0220020_RGB1_20180606_102357", "plot_label": "FPWW0220020", "type": "canopy", "camera_pos_world_x": 2693757.1493475782, "camera_pos_world_y": 1256245.0366129524, "camera_pos_world_z": 558.69113626750186, "c0_zenith_angle": 0.34099838435806729, "c1_zenith_angle": 0.58036403387046209, "c2_zenith_angle": 0.51062584095358732, "c3_zenith_angle": 0.046069531658245344, "c0_azimuth_angle": 5.4697730397538287, "c1_azimuth_angle": 0.094012346143616199, "c2_azimuth_angle": 0.71848194364647977, "c3_azimuth_angle": 1.4054697984969629 }, "geometry": { "type": "Polygon", "coordinates": [ [ [ 3304.717202871901009, 3712.278340709131953 ], [ 371.958978620489233, 3592.93694465709541 ], [ 224.749273153809099, 1426.683831795546212 ], [ 3271.822346712485796, 1348.392639228720782 ], [ 3304.717202871901009, 3712.278340709131953 ] ] ] } }
]
}
