{
"type": "FeatureCollection",
"features": [
{ "type": "Feature", "properties": { "image": "FPWW0220020_RGB1_20180615_093844", "plot_label": "FPWW0220020", "type": "soil", "camera_pos_world_x": null, "camera_pos_world_y": null, "camera_pos_world_z": null, "c0_zenith_angle": null, "c1_zenith_angle": null, "c2_zenith_angle": null, "c3_zenith_angle": null, "c0_azimuth_angle": null, "c1_azimuth_angle": null, "c2_azimuth_angle": null, "c3_azimuth_angle": null }, "geometry": { "type": "Polygon", "coordinates": [ [ [ 3489.251708984375, 3367.882080078125 ], [ 932.82513427734375, 3262.46630859375 ], [ 804.86981201171875, 1522.1038818359375 ], [ 3449.3349609375, 1479.75390625 ], [ 3489.251708984375, 3367.882080078125 ] ] ] } },
{ "type": "Feature", "properties": { "image": "FPWW0220020_RGB1_20180615_093844", "plot_label": "FPWW0220020", "type": "canopy", "camera_pos_world_x": 2693757.1618288816, "camera_pos_world_y": 1256245.1005554183, "camera_pos_world_z": 558.65330021403497, "c0_zenith_angle": 0.35674546285362019, "c1_zenith_angle": 0.58614368440048781, "c2_zenith_angle": 0.50847820848926117, "c3_zenith_angle": 0.031093918822125755, "c0_azimuth_angle": 5.4455586668332581, "c1_azimuth_angle": 0.06873715646587808, "c2_azimuth_angle": 0.69197809256886433, "c3_azimuth_angle": 1.2112425656439623 }, "geometry": { "type": "Polygon", "coordinates": [ [ [ 3426.236921618601173, 3793.995890671200868 ], [ 475.252251748744129, 3658.36314173746905 ], [ 315.816144925779099, 1487.449409677227777 ], [ 3392.161685140306417, 1406.587512601005301 ], [ 3426.236921618601173, 3793.995890671200868 ] ] ] } }
]
}
