{
"type": "FeatureCollection",
"features": [
{ "type": "Feature", "properties": { "image": "FPWW0220021_RGB1_20180207_120141", "plot_label": "FPWW0220021", "type": "soil", "camera_pos_world_x": null, "camera_pos_world_y": null, "camera_pos_world_z": null, "c0_zenith_angle": null, "c1_zenith_angle": null, "c2_zenith_angle": null, "c3_zenith_angle": null, "c0_azimuth_angle": null, "c1_azimuth_angle": null, "c2_azimuth_angle": null, "c3_azimuth_angle": null }, "geometry": { "type": "Polygon", "coordinates": [ [ [ 3403.13427734375, 3322.86376953125 ], [ 1032.7916259765625, 3292.26025390625 ], [ 898.914794921875, 1649.9202880859375 ], [ 3385.75732421875, 1568.5146484375 ], [ 3403.13427734375, 3322.86376953125 ] ] ] } },
{ "type": "Feature", "properties": { "image": "FPWW0220021_RGB1_20180207_120141", "plot_label": "FPWW0220021", "type": "canopy", "camera_pos_world_x": 2693755.7815562766, "camera_pos_world_y": 1256246.5270117209, "camera_pos_world_z": 558.89929678176475, "c0_zenith_angle": 0.3990057554839963, "c1_zenith_angle": 0.5925538281372027, "c2_zenith_angle": 0.48967872115542854, "c3_zenith_angle": 0.063569427839780701, "c0_azimuth_angle": 5.443162466666549, "c1_azimuth_angle": 6.2671454488347687, "c2_azimuth_angle": 0.55568244530468736, "c3_azimuth_angle": 5.845962252010743 }, "geometry": { "type": "Polygon", "coordinates": [ [ [ 3403.13427734375, 3322.86376953125 ], [ 1032.7916259765625, 3292.26025390625 ], [ 898.914794921875, 1649.9202880859375 ], [ 3385.75732421875, 1568.5146484375 ], [ 3403.13427734375, 3322.86376953125 ] ] ] } }
]
}
