filename "FPWW0220001_RGB1_20180702_115518" 
coordinates "7455  10024   7538   5398      0    267      0  -8980      0      0    572    144   -639    565" 
filename "FPWW0220002_RGB1_20180702_115536" 
coordinates "7455  12012   7591   5494      0    253      0  -8980      0      0    572    144   -630    600" 
filename "FPWW0220003_RGB1_20180702_115554" 
coordinates "7455  13998   7642   5588      0    236      0  -8980      0      0    572    144   -633    614" 
filename "FPWW0220004_RGB1_20180702_115610" 
coordinates "7454  15983   7695   5684      0    223      0  -8980      0      0    572    144   -643    600" 
filename "FPWW0220005_RGB1_20180702_115628" 
coordinates "7453  17965   7748   5781      0    207     31  -8980      0      0    572    144   -688    571" 
filename "FPWW0220006_RGB1_20180702_115646" 
coordinates "7453  19946   7800   5876      0    192      0  -8984      0      0    572    144   -701    555" 
filename "FPWW0220007_RGB1_20180702_115704" 
coordinates "7452  21925   7852   5971      0    177      0  -8984      0      0    572    144   -701    489" 
filename "FPWW0220008_RGB1_20180702_115722" 
coordinates "7452  23903   7905   6067      0    163    -31  -8984      0      0    572    144   -745    536" 
filename "FPWW0220009_RGB1_20180702_115740" 
coordinates "7451  25878   7957   6162      0    147      0  -8984      0      0    572    144   -738    562" 
filename "FPWW0220010_RGB1_20180702_115758" 
coordinates "7450  27851   8009   6257      0    133      0  -8989      0      0    572    144   -764    555" 
filename "FPWW0220011_RGB1_20180702_115814" 
coordinates "7450  29823   8061   6352      0    118      0  -8989      0      0    573    145   -781    535" 
filename "FPWW0220012_RGB1_20180702_115832" 
coordinates "7449  31793   8113   6447      0    103      0  -8989      0      0    573    145   -792    481" 
filename "FPWW0220013_RGB1_20180702_115850" 
coordinates "7448  33761   8165   6542      0     88      0  -8989      0      0    573    145   -831    490" 
filename "FPWW0220014_RGB1_20180702_115908" 
coordinates "7448  35727   8216   6635      0     73      0  -8989      0      0    573    145   -884    493" 
filename "FPWW0220015_RGB1_20180702_115926" 
coordinates "7447  37691   8268   6730      0     58      0  -8994      0      0    573    145   -895    479" 
filename "FPWW0220016_RGB1_20180702_115944" 
coordinates "7446  39654   8321   6826      0     43      0  -8994      0      0    573    145   -912    458" 
filename "FPWW0220017_RGB1_20180702_120002" 
coordinates "7445  41615   8372   6920      0     28      0  -8994      0      0    573    145   -923    443" 
filename "FPWW0220018_RGB1_20180702_120020" 
coordinates "7445  43573   8424   7014      0     13      0  -8994      0      0    573    145   -929    467" 
filename "FPWW0220019_RGB1_20180702_120036" 
coordinates "8881  43557   8471   7007      0     13      0  -8994      0      0    573    145   -819    325" 
filename "FPWW0220020_RGB1_20180702_120054" 
coordinates "8883  41597   8421   6914      0     27      0  -8994      0      0    573    145   -719    195" 
filename "FPWW0220021_RGB1_20180702_120110" 
coordinates "8884  39635   8369   6820      0     41      0  -8994      0      0    573    145   -700    196" 
filename "FPWW0220022_RGB1_20180702_120128" 
coordinates "8885  37672   8318   6726      0     56      0  -8994      0      0    573    145   -693    200" 
filename "FPWW0220023_RGB1_20180702_120146" 
coordinates "8887  35706   8265   6630      0     71      0  -8994      0      0    573    145   -603    221" 
filename "FPWW0220024_RGB1_20180702_120204" 
coordinates "8888  33739   8213   6535      0     85      0  -8994      0      0    573    145   -667    199" 
filename "FPWW0220025_RGB1_20180702_120222" 
coordinates "8889  31770   8161   6440      0    100      0  -8994      0      0    573    145   -623    191" 
filename "FPWW0220026_RGB1_20180702_120240" 
coordinates "8891  29799   8109   6345      0    115      0  -8990      0      0    572    144   -611    238" 
filename "FPWW0220027_RGB1_20180702_120256" 
coordinates "8892  27827   8057   6250      0    130      0  -8990      0      0    572    144   -597    214" 
filename "FPWW0220028_RGB1_20180702_120314" 
coordinates "8893  25852   8005   6155      0    145      0  -8990      0      0    572    144   -594    221" 
filename "FPWW0220029_RGB1_20180702_120332" 
coordinates "8895  23876   7953   6060      0    160      0  -8990      0      0    572    144   -558    253" 
filename "FPWW0220030_RGB1_20180702_120350" 
coordinates "8896  21898   7901   5965      0    175      0  -8985      0      0    572    144   -540    264" 
filename "FPWW0220031_RGB1_20180702_120408" 
coordinates "8897  19917   7848   5869      0    191    -31  -8985      0      0    572    144   -548    287" 
filename "FPWW0220032_RGB1_20180702_120432" 
coordinates "8899  17936   7797   5775      0    205      0  -8985      0      0    572    144   -547    419" 
filename "FPWW0220033_RGB1_20180702_120450" 
coordinates "8900  15952   7744   5679      0    220      0  -8985      0      0    572    144   -541    309" 
filename "FPWW0220034_RGB1_20180702_120508" 
coordinates "8901  13966   7691   5582      0    235      0  -8985      0      0    572    144   -530    318" 
filename "FPWW0220035_RGB1_20180702_120524" 
coordinates "8903  11979   7639   5487      0    250      0  -8980      0      0    572    144   -548    352" 
filename "FPWW0220036_RGB1_20180702_120542" 
coordinates "8904  9989  7637  5442     0   250     0 -8980     0     0   572   144  -531   460" 
filename "FPWW0220037_RGB1_20180702_120600" 
coordinates "10354   9954   7741   5491      0    230      0  -8980      0      0    572    144   -520    535" 
filename "FPWW0220038_RGB1_20180702_120618" 
coordinates "10353  11944   7731   5524      0    236      0  -8980      0      0    572    144   -463    589" 
filename "FPWW0220039_RGB1_20180702_120636" 
coordinates "10351  13932   7738   5574      0    235      0  -8980      0      0    572    144   -361    571" 
filename "FPWW0220040_RGB1_20180702_120654" 
coordinates "10349  15919   7791   5671      0    219      0  -8980      0      0    572    144   -416    579" 
filename "FPWW0220041_RGB1_20180702_120710" 
coordinates "10347  17904   7843   5766      0    204      0  -8980      0      0    572    144   -431    557" 
filename "FPWW0220042_RGB1_20180702_120728" 
coordinates "10345  19887   7895   5861      0    190      0  -8980      0      0    572    144   -431    565" 
filename "FPWW0220043_RGB1_20180702_120746" 
coordinates "10343  21868   7948   5957      0    174      0  -8985      0      0    572    144   -425    510" 
filename "FPWW0220044_RGB1_20180702_120804" 
coordinates "10341  23847   8000   6053      0    159      0  -8985      0      0    572    144   -465    529" 
filename "FPWW0220045_RGB1_20180702_120822" 
coordinates "10339  25824   8053   6149      0    145    -31  -8985      0      0    572    144   -493    505" 
filename "FPWW0220046_RGB1_20180702_120838" 
coordinates "10337  27800   8105   6244      0    130    -31  -8985      0      0    572    144   -460    510" 
filename "FPWW0220047_RGB1_20180702_120856" 
coordinates "10335  29774   8157   6339      0    114      0  -8985      0      0    572    144   -500    499" 
filename "FPWW0220048_RGB1_20180702_120914" 
coordinates "10333  31745   8209   6434      0    100      0  -8990      0      0    572    144   -453    470" 
filename "FPWW0220049_RGB1_20180702_120932" 
coordinates "10331  33716   8261   6529      0     85      0  -8990      0      0    573    145   -479    496" 
filename "FPWW0220050_RGB1_20180702_120950" 
coordinates "10329  35684   8313   6624      0     70      0  -8990      0      0    573    145   -515    471" 
filename "FPWW0220051_RGB1_20180702_121018" 
coordinates "10327  37650   8364   6718      0     55      0  -8990      0      0    573    145   -558    333" 
filename "FPWW0220052_RGB1_20180702_121036" 
coordinates "10325  39615   8416   6812      0     40      0  -8990      0      0    573    145   -612    468" 
filename "FPWW0220053_RGB1_20180702_121054" 
coordinates "10323  41577   8468   6907      0     25      0  -8994      0      0    573    145   -580    491" 
filename "FPWW0220054_RGB1_20180702_121112" 
coordinates "10321  43538   8520   7002      0     11      0  -8994      0      0    573    145   -611    433" 
filename "FPWW0220055_RGB1_20180702_121128" 
coordinates "11760  43521   8568   6996      0     11      0  -8994      0      0    573    145   -720    297" 
filename "FPWW0220056_RGB1_20180702_121146" 
coordinates "11763  41560   8517   6902      0     23      0  -8994      0      0    573    145   -457    195" 
filename "FPWW0220057_RGB1_20180702_121204" 
coordinates "11766  39596   8465   6807      0     38      0  -8994      0      0    573    145   -458    193" 
filename "FPWW0220058_RGB1_20180702_121222" 
coordinates "11768  37630   8413   6712      0     53      0  -8994      0      0    573    145   -485    167" 
filename "FPWW0220059_RGB1_20180702_121412" 
coordinates "11771  35663   8361   6617      0     68      0  -8994      0      0    573    145   -483    190" 
filename "FPWW0220060_RGB1_20180702_121432" 
coordinates "11771  35663   8361   6617      0     68      0  -8994      0      0    573    145   -483    190" 
filename "FPWW0220061_RGB1_20180702_121454" 
coordinates "11774  33694   8309   6522      0     83      0  -8990      0      0    572    144   -441    191" 
filename "FPWW0220062_RGB1_20180702_121510" 
coordinates "11776  31723   8257   6427      0     98      0  -8990      0      0    572    144   -440    196" 
filename "FPWW0220063_RGB1_20180702_121528" 
coordinates "11779  29750   8205   6332      0    113      0  -8990      0      0    572    144   -414    194" 
filename "FPWW0220064_RGB1_20180702_121546" 
coordinates "11782  27775   8153   6237      0    128      0  -8990      0      0    572    144   -381    236" 
filename "FPWW0220065_RGB1_20180702_121604" 
coordinates "11784  25799   8101   6142      0    144      0  -8990      0      0    572    144   -377    221" 
filename "FPWW0220066_RGB1_20180702_121620" 
coordinates "11787  23820   8050   6048      0    158      0  -8985      0      0    572    144   -395      0" 
filename "FPWW0220067_RGB1_20180702_121638" 
coordinates "11790  21840   7997   5952      0    174      0  -8985      0      0    572    144   -312    263" 
filename "FPWW0220068_RGB1_20180702_121656" 
coordinates "11793  19858   7945   5857      0    188      0  -8985      0      0    572    144   -351    250" 
filename "FPWW0220069_RGB1_20180702_121714" 
coordinates "11795  17874   7892   5760      0    203      0  -8985      0      0    572    144   -344    273" 
filename "FPWW0220070_RGB1_20180702_121732" 
coordinates "11798  15888   7840   5665      0    218      0  -8980      0      0    572    144   -289    311" 
filename "FPWW0220071_RGB1_20180702_121750" 
coordinates "11801  13900   7826   5608      0    218      0  -8980      0      0    572    144   -372    308" 
filename "FPWW0220072_RGB1_20180702_121808" 
coordinates "11803  11911   7835   5573      0    218      0  -8980      0      0    572    144   -363    375" 
filename "FPWW0220073_RGB1_20180702_121824" 
coordinates "11806   9919   7847   5539      0    212      0  -8980      0      0    572    144   -294    439" 
filename "FPWW0220074_RGB1_20180702_121842" 
coordinates "13259   9884   7958   5590      0    192      0  -8980      0      0    572    144   -364    566" 
filename "FPWW0220075_RGB1_20180702_121900" 
coordinates "13257  11876   7941   5623      0    198      0  -8980      0      0    572    144   -304    525" 
filename "FPWW0220076_RGB1_20180702_121918" 
coordinates "13254  13866   7931   5657      0    198      0  -8980      0      0    572    144   -300    517" 
filename "FPWW0220077_RGB1_20180702_121936" 
coordinates "13250  15855   7921   5691      0    206      0  -8980      0      0    572    144   -264    528" 
filename "FPWW0220078_RGB1_20180702_121954" 
coordinates "13247  17842   7939   5752      0    201      0  -8980      0      0    572    144   -297    532" 
filename "FPWW0220079_RGB1_20180702_122012" 
coordinates "13243  19827   7992   5849      0    187      0  -8980      0      0    572    144   -327    500" 
filename "FPWW0220080_RGB1_20180702_122030" 
coordinates "13240  21810   8044   5944      0    172      0  -8980      0      0    572    144   -280    531" 
filename "FPWW0220081_RGB1_20180702_122046" 
coordinates "13237  23791   8096   6039      0    157      0  -8980      0      0    572    144   -307    481" 
filename "FPWW0220082_RGB1_20180702_122104" 
coordinates "13233  25771   8148   6134      0    141      0  -8985      0      0    572    144   -322    506" 
filename "FPWW0220083_RGB1_20180702_122122" 
coordinates "13230  27748   8201   6230      0    126      0  -8985      0      0    572    144   -312    522" 
filename "FPWW0220084_RGB1_20180702_122140" 
coordinates "13227  29724   8253   6326      0    112      0  -8985      0      0    572    144   -334    763" 
filename "FPWW0220085_RGB1_20180702_122156" 
coordinates "13223  31698   8305   6421      0     97      0  -8985      0      0    572    144   -331    525" 
filename "FPWW0220086_RGB1_20180702_122214" 
coordinates "13220  33670   8357   6516      0     83      0  -8985      0      0    572    144   -341    471" 
filename "FPWW0220087_RGB1_20180702_122232" 
coordinates "13216  35640   8409   6611      0     68      0  -8990      0      0    573    145   -359    441" 
filename "FPWW0220088_RGB1_20180702_122250" 
coordinates "13213  37609   8461   6706      0     53      0  -8990      0      0    573    145   -351    490" 
filename "FPWW0220089_RGB1_20180702_122306" 
coordinates "13210  39575   8512   6800      0     38      0  -8990      0      0    573    145   -582    463" 
filename "FPWW0220090_RGB1_20180702_122324" 
coordinates "13206  41540   8564   6895      0     23      0  -8990      0      0    573    145   -460    451" 
filename "FPWW0220091_RGB1_20180702_122340" 
coordinates "13203  43503   8616   6989      0      8      0  -8990      0      0    573    145   -427    444" 
filename "FPWW0220092_RGB1_20180702_122358" 
coordinates "14645  43486   8664   6983      0      8      0  -8990      0      0    573    145   -483    309" 
filename "FPWW0220093_RGB1_20180702_122416" 
coordinates "14649  41522   8613   6889      0     21      0  -8990      0      0    573    145   -344    198" 
filename "FPWW0220094_RGB1_20180702_122434" 
coordinates "14653  39557   8561   6794      0     36      0  -8990      0      0    573    145   -338    171" 
filename "FPWW0220095_RGB1_20180702_122450" 
coordinates "14657  37589   8509   6699      0     50      0  -8990      0      0    573    145   -311    163" 
filename "FPWW0220096_RGB1_20180702_122508" 
coordinates "14661  35620   8457   6604      0     66      0  -8990      0      0    572    144   -310    195" 
filename "FPWW0220097_RGB1_20180702_122526" 
coordinates "14665  33648   8405   6509      0     80      0  -8990      0      0    572    144   -232    318" 
filename "FPWW0220098_RGB1_20180702_122544" 
coordinates "14669  31675   8353   6414      0     95    -31  -8990      0      0    572    144   -245    219" 
filename "FPWW0220099_RGB1_20180702_122600" 
coordinates "14673  29700   8302   6320      0    110      0  -8990      0      0    572    144   -311    198" 
filename "FPWW0220100_RGB1_20180702_122618" 
coordinates "14678  27724   8250   6225      0    126      0  -8985      0      0    572    144   -282    215" 
filename "FPWW0220101_RGB1_20180702_122636" 
coordinates "14682  25745   8198   6130      0    140      0  -8985      0      0    572    144   -281    191" 
filename "FPWW0220102_RGB1_20180702_122654" 
coordinates "14686  23764   8145   6033      0    155      0  -8985      0      0    572    144   -227    266" 
filename "FPWW0220103_RGB1_20180702_122710" 
coordinates "14690  21782   8093   5938      0    171      0  -8985      0      0    572    144   -240      1" 
filename "FPWW0220104_RGB1_20180702_122728" 
coordinates "14694  19798   8041   5843      0    185      0  -8985      0      0    572    144   -224    264" 
filename "FPWW0220105_RGB1_20180702_122746" 
coordinates "14698  17812   8015   5773      0    192      0  -8980      0      0    572    144   -165    304" 
filename "FPWW0220106_RGB1_20180702_122804" 
coordinates "14702  15824   8025   5740      0    188      0  -8980      0      0    572    144   -241    242" 
filename "FPWW0220107_RGB1_20180702_122820" 
coordinates "14706  13834   8034   5705      0    182      0  -8980      0      0    572    144   -190    283" 
filename "FPWW0220108_RGB1_20180702_122838" 
coordinates "14710  11843   8048   5672      0    177      0  -8980      0      0    572    144   -203    316" 
filename "FPWW0220109_RGB1_20180702_122854" 
coordinates "14714   9849   8077   5639      0    177      0  -8980      0      0    572    144    -94    512" 
filename "FPWW0220110_RGB1_20180702_122914" 
coordinates "16170   9814   8197   5689      0    154      0  -8980      0      0    572    144   -124    671" 
filename "FPWW0220111_RGB1_20180702_122930" 
coordinates "16167  11807   8162   5723      0    158      0  -8980      0      0    572    144   -212    495" 
filename "FPWW0220112_RGB1_20180702_122948" 
coordinates "16162  13800   8142   5757      0    163      0  -8980      0      0    572    144   -242    461" 
filename "FPWW0220113_RGB1_20180702_123006" 
coordinates "16157  15791   8130   5790      0    168      0  -8980      0      0    572    144   -210    475" 
filename "FPWW0220114_RGB1_20180702_123024" 
coordinates "16152  17780   8120   5823      0    168      0  -8980      0      0    572    144   -208    498" 
filename "FPWW0220115_RGB1_20180702_123042" 
coordinates "16148  19767   8110   5857      0    177      0  -8980      0      0    572    144   -210    509" 
filename "FPWW0220116_RGB1_20180702_123100" 
coordinates "16143  21752   8140   5930      0    169      0  -8980      0      0    572    144   -181    498" 
filename "FPWW0220117_RGB1_20180702_123122" 
coordinates "16138  23736   8192   6025      0    155      0  -8980      0      0    572    144   -193    499" 
filename "FPWW0220118_RGB1_20180702_123140" 
coordinates "16133  25717   8245   6122      0    139      0  -8980      0      0    572    144   -176    483" 
filename "FPWW0220119_RGB1_20180702_123200" 
coordinates "16129  27697   8297   6217      0    125      0  -8980      0      0    572    144   -189    488" 
filename "FPWW0220120_RGB1_20180702_123216" 
coordinates "16124  29675   8349   6312      0    109      0  -8985      0      0    572    144   -202    473" 
filename "FPWW0220121_RGB1_20180702_123242" 
coordinates "16119  31650   8401   6407      0     95    -31  -8985      0      0    572    144   -228    453" 
filename "FPWW0220122_RGB1_20180702_123258" 
coordinates "16114  33625   8453   6503      0     80      0  -8985      0      0    572    144   -235    438" 
filename "FPWW0220123_RGB1_20180702_123318" 
coordinates "16110  35597   8505   6598      0     65      0  -8985      0      0    572    144   -375    422" 
filename "FPWW0220124_RGB1_20180702_123336" 
coordinates "16105  37567   8557   6693      0     50      0  -8985      0      0    572    144   -296    492" 
filename "FPWW0220125_RGB1_20180702_123400" 
coordinates "16100  39536   8609   6788      0     35      0  -8990      0      0    573    145   -247    459" 
filename "FPWW0220126_RGB1_20180702_123418" 
coordinates "16096  41503   8661   6883      0     19      0  -8990      0      0    573    145   -285    462" 
filename "FPWW0220127_RGB1_20180702_123436" 
coordinates "16091  43467   8712   6977      0      5      0  -8990      0      0    573    145   -508    413" 
filename "FPWW0220128_RGB1_20180702_123456" 
coordinates "17536  43950   8749   6970      0      5      0  -8990      0      0    573    145   -301    357" 
filename "FPWW0220129_RGB1_20180702_123516" 
coordinates "17541  41985   8698   6876      0     19      0  -8990      0      0    573    145   -346    152" 
filename "FPWW0220130_RGB1_20180702_123532" 
coordinates "17547  40017   8647   6782      0     33      0  -8990      0      0    572    144   -120    194" 
filename "FPWW0220131_RGB1_20180702_123552" 
coordinates "17552  38047   8596   6688      0     48      0  -8990      0      0    572    144   -342    148" 
filename "FPWW0220132_RGB1_20180702_123610" 
coordinates "17558  36076   8544   6593      0     60      0  -8989      0      0    572    144   -227    199" 
filename "FPWW0220133_RGB1_20180702_123644" 
coordinates "17563  34103   8491   6497      0     79    -31  -8989      0      0    572    144   -231    185" 
filename "FPWW0220134_RGB1_20180702_123700" 
coordinates "17568  32128   8439   6402      0     93      0  -8985      0      0    572    144   -214    177" 
filename "FPWW0220135_RGB1_20180702_123718" 
coordinates "17574  30151   8387   6306      0    107      0  -8985      0      0    572    144   -206    197" 
filename "FPWW0220136_RGB1_20180702_123736" 
coordinates "17579  28172   8335   6211      0    123      0  -8985      0      0    572    144   -201    183" 
filename "FPWW0220137_RGB1_20180702_123754" 
coordinates "17585  26191   8283   6116      0    137      0  -8985      0      0    572    144   -188    193" 
filename "FPWW0220138_RGB1_20180702_123810" 
coordinates "17590  24209   8231   6020      0    153      0  -8985      0      0    572    144   -167    203" 
filename "FPWW0220139_RGB1_20180702_123828" 
coordinates "17596  22224   8194   5940      0    164      0  -8980      0      0    572    144   -152    206" 
filename "FPWW0220140_RGB1_20180702_123846" 
coordinates "17601  20238   8203   5906      0    159      0  -8980      0      0    572    144   -133    225" 
filename "FPWW0220141_RGB1_20180702_123904" 
coordinates "17606  18250   8212   5871      0    154      0  -8980      0      0    572    144   -154    203" 
filename "FPWW0220142_RGB1_20180702_123920" 
coordinates "17612  16260   8223   5839      0    149      0  -8980      0      0    572    144   -124    251" 
filename "FPWW0220143_RGB1_20180702_123938" 
coordinates "17617  14268   8236   5806      0    149      0  -8980      0      0    572    144   -111    253" 
filename "FPWW0220144_RGB1_20180702_123956" 
coordinates "17623  12274   8261   5771      0    140      0  -8980      0      0    572    144    -61    412" 
filename "FPWW0220145_RGB1_20180702_124012" 
coordinates "17628  10279   8301   5738      0    135      0  -8980      0      0    572    144     20    728" 
filename "FPWW0220146_RGB1_20180702_124030" 
coordinates "19087   9744   8441   5788      0    115      0  -8980      0      0    572    144     -4    923" 
filename "FPWW0220147_RGB1_20180702_124048" 
coordinates "19082  11739   8403   5823      0    120      0  -8980      0      0    572    144     27    921" 
filename "FPWW0220148_RGB1_20180702_124106" 
coordinates "19076  13734   8365   5855      0    121      0  -8980      0      0    572    144   -148    457" 
filename "FPWW0220149_RGB1_20180702_124124" 
coordinates "19070  15727   8341   5889      0    129      0  -8980      0      0    572    144   -189    378" 
filename "FPWW0220150_RGB1_20180702_124140" 
coordinates "19064  17718   8329   5922      0    135      0  -8980      0      0    572    144   -156    453" 
filename "FPWW0220151_RGB1_20180702_124158" 
coordinates "19058  19707   8319   5956      0    140      0  -8980      0      0    572    144   -132    484" 
filename "FPWW0220152_RGB1_20180702_124216" 
coordinates "19052  21694   8309   5989      0    145      0  -8980      0      0    572    144   -165    498" 
filename "FPWW0220153_RGB1_20180702_124234" 
coordinates "19046  23680   8299   6022      0    144      0  -8980      0      0    572    144   -132    460" 
filename "FPWW0220154_RGB1_20180702_124250" 
coordinates "19039  25663   8341   6108      0    137    -31  -8980      0      0    572    144   -112    477" 
filename "FPWW0220155_RGB1_20180702_124308" 
coordinates "19033  27645   8393   6203      0    122      0  -8980      0      0    572    144   -140    474" 
filename "FPWW0220156_RGB1_20180702_124326" 
coordinates "19027  29625   8445   6299      0    107      0  -8980      0      0    572    144   -129    459" 
filename "FPWW0220157_RGB1_20180702_124344" 
coordinates "19021  31603   8498   6395      0     92      0  -8980      0      0    572    144   -192    424" 
filename "FPWW0220158_RGB1_20180702_124400" 
coordinates "19015  33579   8549   6489      0     77      0  -8984      0      0    572    144   -179    437" 
filename "FPWW0220159_RGB1_20180702_124422" 
coordinates "19009  35553   8601   6584      0     62      0  -8984      0      0    572    144   -188    415" 
filename "FPWW0220160_RGB1_20180702_124438" 
coordinates "19003  37526   8653   6679      0     47      0  -8984      0      0    572    144   -230    323" 
filename "FPWW0220161_RGB1_20180702_124456" 
coordinates "18997  39496   8705   6774      0     32      0  -8984      0      0    572    144   -203    432" 
filename "FPWW0220162_RGB1_20180702_124514" 
coordinates "18991  41465   8757   6870      0     17      0  -8984      0      0    572    144   -240    476" 
filename "FPWW0220163_RGB1_20180702_124530" 
coordinates "18985  43432   8809   6965      0      2     31  -8989      0      0    573    145   -221    468" 
filename "FPWW0220164_RGB1_20180702_124550" 
coordinates "20433  44014   8844   6958      0      3      0  -8989      0      0    572    144   -368    368" 
filename "FPWW0220165_RGB1_20180702_124606" 
coordinates "20440  42047   8793   6864      0     15      0  -8989      0      0    572    144   -188    120" 
filename "FPWW0220166_RGB1_20180702_124624" 
coordinates "20446  40078   8742   6770      0     30      0  -8989      0      0    572    144   -191    120" 
filename "FPWW0220167_RGB1_20180702_124642" 
coordinates "20453  38106   8690   6675      0     45      0  -8989      0      0    572    144   -166    132" 
filename "FPWW0220168_RGB1_20180702_124658" 
coordinates "20460  36132   8638   6580      0     60      0  -8985      0      0    572    144   -174    168" 
filename "FPWW0220169_RGB1_20180702_124716" 
coordinates "20467  34157   8586   6484      0     75      0  -8985      0      0    572    144   -149    167" 
filename "FPWW0220170_RGB1_20180702_124734" 
coordinates "20473  32180   8533   6388      0     90      0  -8985      0      0    572    144   -179    175" 
filename "FPWW0220171_RGB1_20180702_124752" 
coordinates "20480  30201   8482   6294      0    106      0  -8985      0      0    572    144   -166    194" 
filename "FPWW0220172_RGB1_20180702_124808" 
coordinates "20487  28220   8429   6197      0    120      0  -8985      0      0    572    144   -180    178" 
filename "FPWW0220173_RGB1_20180702_124826" 
coordinates "20494  26237   8381   6106      0    135      0  -8980      0      0    572    144   -154    206" 
filename "FPWW0220174_RGB1_20180702_124844" 
coordinates "20500  24253   8390   6072      0    130      0  -8980      0      0    572    144   -147    192" 
filename "FPWW0220175_RGB1_20180702_124902" 
coordinates "20507  22266   8399   6037      0    125      0  -8980      0      0    572    144   -112    211" 
filename "FPWW0220176_RGB1_20180702_124918" 
coordinates "20514  20278   8410   6005      0    125      0  -8980      0      0    572    144   -107    203" 
filename "FPWW0220177_RGB1_20180702_124936" 
coordinates "20521  18288   8421   5972      0    116      0  -8980      0      0    572    144   -107    209" 
filename "FPWW0220178_RGB1_20180702_124954" 
coordinates "20528  16296   8433   5937      0    111      0  -8980      0      0    572    144    -91    210" 
filename "FPWW0220179_RGB1_20180702_125012" 
coordinates "20535  14302   8462   5904      0    106      0  -8980      0      0    572    144     15    426" 
filename "FPWW0220180_RGB1_20180702_125028" 
coordinates "20541  12306   8502   5871      0    100      0  -8980      0      0    572    144     -1    486" 
filename "FPWW0220181_RGB1_20180702_125046" 
coordinates "20548  10308   8541   5837      0    101      0  -8980      0      0    572    144    -18    483" 
filename "FPWW0220182_RGB1_20180702_125104" 
coordinates "22010   9673   8686   5888      0     77      0  -8980      0      0    572    144    -41    741" 
filename "FPWW0220183_RGB1_20180702_125120" 
coordinates "22004  11671   8647   5922      0     82      0  -8980      0      0    572    144     25    898" 
filename "FPWW0220184_RGB1_20180702_125138" 
coordinates "21996  13668   8607   5955      0     86      0  -8980      0      0    572    144     64    842" 
filename "FPWW0220185_RGB1_20180702_125156" 
coordinates "21989  15663   8567   5988      0     92      0  -8980      0      0    572    144    -47    523" 
filename "FPWW0220186_RGB1_20180702_125214" 
coordinates "21981  17656   8541   6022      0     92      0  -8980      0      0    572    144   -140    373" 
filename "FPWW0220187_RGB1_20180702_125230" 
coordinates "21974  19647   8529   6055      0    100      0  -8980      0      0    572    144   -117    402" 
filename "FPWW0220188_RGB1_20180702_125248" 
coordinates "21966  21636   8519   6089      0    106      0  -8980      0      0    572    144    -58    478" 
filename "FPWW0220189_RGB1_20180702_125306" 
coordinates "21959  23624   8508   6121      0    111      0  -8980      0      0    572    144    -92    441" 
filename "FPWW0220190_RGB1_20180702_125322" 
coordinates "21951  25609   8499   6156      0    116      0  -8980      0      0    572    144    -73    445" 
filename "FPWW0220191_RGB1_20180702_125340" 
coordinates "21944  27593   8491   6191      0    116      0  -8980      0      0    572    144   -105    437" 
filename "FPWW0220192_RGB1_20180702_125358" 
coordinates "21936  29575   8542   6286      0    103      0  -8980      0      0    572    144    -82    439" 
filename "FPWW0220193_RGB1_20180702_125416" 
coordinates "21929  31555   8594   6381      0     88      0  -8980      0      0    572    144   -108    426" 
filename "FPWW0220194_RGB1_20180702_125432" 
coordinates "21922  33533   8646   6476      0     74      0  -8980      0      0    572    144   -127    413" 
filename "FPWW0220195_RGB1_20180702_125450" 
coordinates "21914  35510   8698   6572      0     60      0  -8980      0      0    572    144   -157    407" 
filename "FPWW0220196_RGB1_20180702_125508" 
coordinates "21907  37484   8750   6667      0     45      0  -8984      0      0    572    144   -153    439" 
filename "FPWW0220197_RGB1_20180702_125526" 
coordinates "21899  39457   8802   6762      0     30      0  -8984      0      0    572    144   -144    425" 
filename "FPWW0220198_RGB1_20180702_125542" 
coordinates "21892  41427   8854   6857      0     15      0  -8984      0      0    572    144   -194    443" 
filename "FPWW0220199_RGB1_20180702_125602" 
coordinates "21884  43396   8905   6951      0      0      0  -8984      0      0    572    144   -236    457" 
filename "FPWW0220200_RGB1_20180702_125620" 
coordinates "23335  43380   8954   6946      0      0      0  -8984      0      0    572    144   -315    244" 
filename "FPWW0220201_RGB1_20180702_125638" 
coordinates "23344  41410   8903   6852      0     12      0  -8984      0      0    572    144   -119    112" 
filename "FPWW0220202_RGB1_20180702_125654" 
coordinates "23352  39438   8851   6756      0     27      0  -8984      0      0    572    144   -145    140" 
filename "FPWW0220203_RGB1_20180702_125712" 
coordinates "23360  37464   8799   6661      0     42      0  -8984      0      0    572    144   -115    119" 
filename "FPWW0220204_RGB1_20180702_125746" 
coordinates "23368  35489   8748   6567      0     57      0  -8984      0      0    572    144   -148    131" 
filename "FPWW0220205_RGB1_20180702_130054" 
coordinates "23376  33511   8695   6471      0     72      0  -8984      0      0    572    144   -104    176" 
filename "FPWW0220206_RGB1_20180702_130112" 
coordinates "23384  31532   8643   6375      0     87      0  -8984      0      0    572    144   -113    177" 
filename "FPWW0220207_RGB1_20180702_130130" 
coordinates "23384  31532   8643   6375      0     87      0  -8984      0      0    572    144   -113    177" 
filename "FPWW0220208_RGB1_20180702_130148" 
coordinates "23384  31532   8643   6375      0     87      0  -8984      0      0    572    144   -113    177" 
filename "FPWW0220209_RGB1_20180702_130204" 
coordinates "23392  29551   8592   6281      0    102      0  -8980      0      0    572    144   -106    188" 
filename "FPWW0220210_RGB1_20180702_130222" 
coordinates "23401  27568   8593   6238      0    102     31  -8980      0      0    572    144    -87    190" 
filename "FPWW0220211_RGB1_20180702_130240" 
coordinates "23409  25583   8602   6204      0     96      0  -8980      0      0    572    144    -76    150" 
filename "FPWW0220212_RGB1_20180702_130348" 
coordinates "23417  23597   8612   6170      0     96      0  -8980      0      0    572    144    -65    182" 
filename "FPWW0220213_RGB1_20180702_130414" 
coordinates "23425  21608   8623   6138      0     87      0  -8980      0      0    572    144    -88    153" 
filename "FPWW0220214_RGB1_20180702_130434" 
coordinates "23433  19618   8634   6105      0     82      0  -8980      0      0    572    144    -44    231" 
filename "FPWW0220215_RGB1_20180702_130450" 
coordinates "23441  17626   8653   6071      0     77      0  -8980      0      0    572    144   -149    270" 
filename "FPWW0220216_RGB1_20180702_130508" 
coordinates "23450  15631   8689   6038      0     72      0  -8980      0      0    572    144     -1    419" 
filename "FPWW0220217_RGB1_20180702_130524" 
coordinates "23458  13635   8729   6005      0     72      0  -8980      0      0    572    144      0    324" 
filename "FPWW0220218_RGB1_20180702_130544" 
coordinates "23466  11637   8768   5970      0     63      0  -8980      0      0    572    144     67    612" 
filename "FPWW0220219_RGB1_20180702_130600" 
coordinates "23474   9638   8808   5937      0     58      0  -8980      0      0    573    145     60    731" 
filename "FPWW0220220_RGB1_20180702_130618" 
coordinates "24940   9602   8931   5987      0     39      0  -8980      0      0    573    145    -59    824" 
filename "FPWW0220221_RGB1_20180702_130636" 
coordinates "24932  11602   8892   6022      0     39      0  -8980      0      0    573    145    -42    803" 
filename "FPWW0220222_RGB1_20180702_130654" 
coordinates "24923  13601   8852   6055      0     47      0  -8980      0      0    572    144     41    715" 
filename "FPWW0220223_RGB1_20180702_130710" 
coordinates "24914  15598   8812   6088      0     52      0  -8980      0      0    572    144     31    706" 
filename "FPWW0220224_RGB1_20180702_130728" 
coordinates "24905  17593   8772   6122      0     58      0  -8980      0      0    572    144     48    605" 
filename "FPWW0220225_RGB1_20180702_130746" 
coordinates "24896  19587   8743   6155      0     63      0  -8980      0      0    572    144   -116    458" 
filename "FPWW0220226_RGB1_20180702_130804" 
coordinates "24887  21578   8729   6188      0     68      0  -8980      0      0    572    144    -97    422" 
filename "FPWW0220227_RGB1_20180702_130820" 
coordinates "24878  23568   8719   6222      0     68      0  -8980      0      0    572    144    -51    452" 
filename "FPWW0220228_RGB1_20180702_130846" 
coordinates "24869  25555   8708   6255      0     76      0  -8980      0      0    572    144    -90    425" 
filename "FPWW0220229_RGB1_20180702_130902" 
coordinates "24861  27541   8697   6287      0     82      0  -8980      0      0    572    144    -87    415" 
filename "FPWW0220230_RGB1_20180702_130920" 
coordinates "24852  29525   8688   6322      0     87      0  -8980      0      0    572    144    -74    442" 
filename "FPWW0220231_RGB1_20180702_130938" 
coordinates "24843  31507   8691   6368      0     87      0  -8980      0      0    572    144    -94    314" 
filename "FPWW0220232_RGB1_20180702_130956" 
coordinates "24834  33487   8743   6463      0     72      0  -8980      0      0    572    144    -90    433" 
filename "FPWW0220233_RGB1_20180702_131018" 
coordinates "24825  35466   8795   6559      0     57      0  -8980      0      0    572    144    -93    428" 
filename "FPWW0220234_RGB1_20180702_131034" 
coordinates "24816  37442   8847   6654      0     42      0  -8980      0      0    572    144    -95    423" 
filename "FPWW0220235_RGB1_20180702_131050" 
coordinates "24808  39417   8899   6749      0     27      0  -8980      0      0    572    144   -168    426" 
filename "FPWW0220236_RGB1_20180702_131110" 
coordinates "24799  41390   8951   6845      0     12      0  -8985      0      0    572    144   -188    432" 
filename "FPWW0220237_RGB1_20180702_131130" 
coordinates "24790  43361   9002   6939      0     -2      0  -8985      0      0    572    144   -177    363" 
filename "FPWW0220238_RGB1_20180702_131146" 
coordinates "26244  43344   9051   6933      0     -2      0  -8985      0      0    572    144   -362    235" 
filename "FPWW0220239_RGB1_20180702_131204" 
coordinates "26254  41372   9001   6840      0     11      0  -8985      0      0    572    144   -112    138" 
filename "FPWW0220240_RGB1_20180702_131222" 
coordinates "26263  39398   8948   6744      0     25      0  -8985      0      0    572    144   -107    118" 
filename "FPWW0220241_RGB1_20180702_131238" 
coordinates "26273  37422   8896   6648      0     40      0  -8985      0      0    572    144    -83    142" 
filename "FPWW0220242_RGB1_20180702_131256" 
coordinates "26282  35445   8845   6554      0     54      0  -8981      0      0    572    144   -105    168" 
filename "FPWW0220243_RGB1_20180702_131314" 
coordinates "26292  33465   8792   6458      0     69      0  -8981      0      0    572    144    -52    159" 
filename "FPWW0220244_RGB1_20180702_131334" 
coordinates "26301  31484   8783   6405      0     69      0  -8981      0      0    572    144    -77    157" 
filename "FPWW0220245_RGB1_20180702_131350" 
coordinates "26311  29501   8792   6371      0     69      0  -8981      0      0    572    144    -55    172" 
filename "FPWW0220246_RGB1_20180702_131408" 
coordinates "26320  27516   8802   6337      0     63      0  -8981      0      0    572    144    -52    183" 
filename "FPWW0220247_RGB1_20180702_131426" 
coordinates "26330  25529   8812   6303      0     58      0  -8981      0      0    572    144    -41    203" 
filename "FPWW0220248_RGB1_20180702_131444" 
coordinates "26339  23541   8823   6271      0     53      0  -8981      0      0    572    144    -48    179" 
filename "FPWW0220249_RGB1_20180702_131500" 
coordinates "26349  21550   8833   6237      0     48      0  -8981      0      0    572    144    -61    155" 
filename "FPWW0220250_RGB1_20180702_131518" 
coordinates "26358  19557   8855   6204      0     43      0  -8981      0      0    572    144    -18    188" 
filename "FPWW0220251_RGB1_20180702_131536" 
coordinates "26368  17563   8893   6170      0     43      0  -8981      0      0    572    144     -1    250" 
filename "FPWW0220252_RGB1_20180702_131554" 
coordinates "26378  15567   8934   6138      0     34      0  -8981      0      0    572    144      9    313" 
filename "FPWW0220253_RGB1_20180702_131610" 
coordinates "26387  13569   8974   6105      0     29      0  -8981      0      0    573    145     39    541" 
filename "FPWW0220254_RGB1_20180702_131628" 
coordinates "26397  11569   9013   6070      0     24      0  -8981      0      0    573    145     62    692" 
filename "FPWW0220255_RGB1_20180702_131646" 
coordinates "26406   9567   9054   6038      0     19      0  -8981      0      0    573    145     75    773" 
filename "FPWW0220256_RGB1_20180702_131708" 
coordinates "27875   9532   9177   6088      0      0      0  -8981      0      0    573    145    -44    791" 
filename "FPWW0220257_RGB1_20180702_131726" 
coordinates "27865  11533   9137   6121      0      4      0  -8981      0      0    573    145      6    704" 
filename "FPWW0220258_RGB1_20180702_131746" 
coordinates "27855  13534   9098   6156      0      5      0  -8981      0      0    573    145     12    659" 
filename "FPWW0220259_RGB1_20180702_131802" 
coordinates "27845  15534   9057   6188      0     13      0  -8981      0      0    573    145     35    602" 
filename "FPWW0220260_RGB1_20180702_131820" 
coordinates "27834  17531   9017   6222      0     18      0  -8981      0      0    572    144     22    583" 
filename "FPWW0220261_RGB1_20180702_131840" 
coordinates "27824  19526   8978   6256      0     24      0  -8981      0      0    572    144     38    586" 
filename "FPWW0220262_RGB1_20180702_131858" 
coordinates "27814  21520   8946   6289      0     29      0  -8981      0      0    572    144     15    509" 
filename "FPWW0220263_RGB1_20180702_131918" 
coordinates "27804  23511   8929   6321      0     34      0  -8981      0      0    572    144    -64    458" 
filename "FPWW0220264_RGB1_20180702_131936" 
coordinates "27793  25501   8918   6354      0     39      0  -8981      0      0    572    144    -68    425" 
filename "FPWW0220265_RGB1_20180702_131956" 
coordinates "27783  27489   8908   6388      0     38      0  -8981      0      0    572    144   -126    399" 
filename "FPWW0220266_RGB1_20180702_132012" 
coordinates "27773  29475   8898   6421      0     47      0  -8981      0      0    572    144     20    421" 
filename "FPWW0220267_RGB1_20180702_132036" 
coordinates "27763  31459   8888   6455      0     53      0  -8981      0      0    572    144    -55    444" 
filename "FPWW0220268_RGB1_20180702_132054" 
coordinates "27753  33442   8877   6487      0     58      0  -8981      0      0    572    144    -66    393" 
filename "FPWW0220269_RGB1_20180702_132114" 
coordinates "27742  35422   8892   6546      0     58      0  -8981      0      0    572    144   -124    397" 
filename "FPWW0220270_RGB1_20180702_132132" 
coordinates "27732  37401   8944   6641      0     39      0  -8981      0      0    572    144   -168    421" 
filename "FPWW0220271_RGB1_20180702_132150" 
coordinates "27722  39377   8996   6737      0     24      0  -8981      0      0    572    144   -144    405" 
filename "FPWW0220272_RGB1_20180702_132210" 
coordinates "27712  41352   9047   6831      0      9      0  -8981      0      0    572    144   -145    397" 
filename "FPWW0220273_RGB1_20180702_132226" 
coordinates "27702  43325   9099   6926      0     -5      0  -8981      0      0    572    144   -203    380" 
filename "FPWW0220274_RGB1_20180702_132244" 
coordinates "29159  43308   9148   6921      0     -5      0  -8981      0      0    572    144   -281    184" 
filename "FPWW0220275_RGB1_20180702_132302" 
coordinates "29170  41334   9097   6826      0      8      0  -8981      0      0    572    144   -126    110" 
filename "FPWW0220276_RGB1_20180702_132318" 
coordinates "29180  39358   9046   6732      0     22      0  -8981      0      0    572    144    -91    122" 
filename "FPWW0220277_RGB1_20180702_132336" 
coordinates "29191  37381   8993   6635      0     37      0  -8981      0      0    572    144   -102     99" 
filename "FPWW0220278_RGB1_20180702_132354" 
coordinates "29202  35401   8972   6571      0     43      0  -8981      0      0    572    144    -89    149" 
filename "FPWW0220279_RGB1_20180702_132412" 
coordinates "29213  33420   8981   6536      0     43      0  -8981      0      0    572    144    -51    143" 
filename "FPWW0220280_RGB1_20180702_132428" 
coordinates "29224  31436   8992   6504      0     34      0  -8981      0      0    572    144    -33    139" 
filename "FPWW0220281_RGB1_20180702_132446" 
coordinates "29235  29451   9002   6470      0     29      0  -8981      0      0    572    144    -45    174" 
filename "FPWW0220282_RGB1_20180702_132504" 
coordinates "29246  27464   9012   6436      0     24      0  -8981      0      0    572    144    -49    175" 
filename "FPWW0220283_RGB1_20180702_132520" 
coordinates "29257  25475   9023   6404      0     19      0  -8981      0      0    572    144    -16    212" 
filename "FPWW0220284_RGB1_20180702_132538" 
coordinates "29268  23484   9035   6371      0     14      0  -8981      0      0    572    144    -20    167" 
filename "FPWW0220285_RGB1_20180702_132556" 
coordinates "29279  21492   9059   6337      0     14      0  -8981      0      0    572    144    -24    161" 
filename "FPWW0220286_RGB1_20180702_132614" 
coordinates "29290  19497   9099   6304      0      5      0  -8981      0      0    572    144    -22    164" 
filename "FPWW0220287_RGB1_20180702_132630" 
coordinates "29300  17501   9139   6271      0      0      0  -8981      0      0    572    144     28    328" 
filename "FPWW0220288_RGB1_20180702_132648" 
coordinates "29311  15502   9179   6238      0     -4      0  -8981      0      0    573    145     50    464" 
filename "FPWW0220289_RGB1_20180702_132704" 
coordinates "29322  13502   9219   6204      0    -10     31  -8981      0      0    573    145     44    524" 
filename "FPWW0220290_RGB1_20180702_132724" 
coordinates "29333  11500   9259   6171      0    -14      0  -8981      0      0    573    145     72    691" 
filename "FPWW0220291_RGB1_20180702_132740" 
coordinates "29344   9496   9300   6138      0    -19      0  -8981      0      0    573    145     85    824" 
filename "FPWW0220292_RGB1_20180702_132758" 
coordinates "30816   9461   9423   6188      0    -39     31  -8981      0      0    573    145    -23    763" 
filename "FPWW0220293_RGB1_20180702_132816" 
coordinates "30805  11465   9384   6222      0    -33      0  -8981      0      0    573    145      7    681" 
filename "FPWW0220294_RGB1_20180702_132834" 
coordinates "30793  13468   9343   6255      0    -28      0  -8981      0      0    573    145     24    623" 
filename "FPWW0220295_RGB1_20180702_132850" 
coordinates "30782  15469   9303   6289      0    -23      0  -8981      0      0    573    145     34    589" 
filename "FPWW0220296_RGB1_20180702_132908" 
coordinates "30770  17468   9263   6322      0    -23      0  -8981      0      0    573    145     32    557" 
filename "FPWW0220297_RGB1_20180702_132932" 
coordinates "30758  19466   9223   6356      0    -14      0  -8981      0      0    572    144     21    499" 
filename "FPWW0220298_RGB1_20180702_133002" 
coordinates "30747  21461   9183   6388      0     -9      0  -8981      0      0    572    144     22    531" 
filename "FPWW0220299_RGB1_20180702_133024" 
coordinates "30735  23455   9149   6422      0     -4      0  -8981      0      0    572    144      0    454" 
filename "FPWW0220300_RGB1_20180702_133048" 
coordinates "30723  25447   9129   6454      0      0      0  -8981      0      0    572    144    -67    414" 
filename "FPWW0220301_RGB1_20180702_133106" 
coordinates "30712  27437   9119   6488      0      5      0  -8981      0      0    572    144    -36    430" 
filename "FPWW0220302_RGB1_20180702_133122" 
coordinates "30700  29425   9109   6522      0     10      0  -8981      0      0    572    144      3    408" 
filename "FPWW0220303_RGB1_20180702_133140" 
coordinates "30689  31411   9098   6554      0     10      0  -8981      0      0    572    144    -29    424" 
filename "FPWW0220304_RGB1_20180702_133202" 
coordinates "30677  33396   9087   6587      0     18      0  -8981      0      0    572    144    -37    411" 
filename "FPWW0220305_RGB1_20180702_133232" 
coordinates "30665  35378   9077   6621      0     24      0  -8981      0      0    572    144    -74    362" 
filename "FPWW0220306_RGB1_20180702_133256" 
coordinates "30654  37359   9066   6653      0     29      0  -8981      0      0    572    144    -77    393" 
filename "FPWW0220307_RGB1_20180702_133320" 
coordinates "30642  39337   9093   6724      0     21      0  -8981      0      0    572    144   -110    401" 
filename "FPWW0220308_RGB1_20180702_133340" 
coordinates "30631  41314   9145   6819      0      6      0  -8981      0      0    572    144   -128    383" 
filename "FPWW0220309_RGB1_20180702_133402" 
coordinates "30619  43289   9197   6914      0     -7      0  -8981      0      0    572    144   -153    324" 
filename "FPWW0220310_RGB1_20180702_133426" 
coordinates "32079  43273   9246   6909      0     -7      0  -8981      0      0    572    144   -261    171" 
filename "FPWW0220311_RGB1_20180702_133448" 
coordinates "32091  41296   9194   6813      0      4      0  -8981      0      0    572    144   -109    115" 
filename "FPWW0220312_RGB1_20180702_133512" 
coordinates "32104  39318   9161   6737      0     13      0  -8981      0      0    572    144   -149     88" 
filename "FPWW0220313_RGB1_20180702_133536" 
coordinates "32116  37339   9171   6703      0     13      0  -8981      0      0    572    144   -109    117" 
filename "FPWW0220314_RGB1_20180702_133600" 
coordinates "32128  35357   9181   6669      0      5      0  -8981      0      0    572    144    -22    131" 
filename "FPWW0220315_RGB1_20180702_133624" 
coordinates "32140  33374   9192   6637      0      0      0  -8981      0      0    572    144    -53    137" 
filename "FPWW0220316_RGB1_20180702_133646" 
coordinates "32153  31388   9202   6603      0     -4      0  -8981      0      0    572    144     -7    132" 
filename "FPWW0220317_RGB1_20180702_133710" 
coordinates "32165  29401   9213   6570      0     -9      0  -8981      0      0    572    144    -13    174" 
filename "FPWW0220318_RGB1_20180702_133734" 
coordinates "32177  27412   9224   6538      0    -14      0  -8981      0      0    572    144    -38    163" 
filename "FPWW0220319_RGB1_20180702_133758" 
coordinates "32190  25421   9238   6504      0    -19      0  -8981      0      0    572    144      0    161" 
filename "FPWW0220320_RGB1_20180702_133822" 
coordinates "32202  23428   9265   6470      0    -19      0  -8981      0      0    572    144     12    199" 
filename "FPWW0220321_RGB1_20180702_133848" 
coordinates "32214  21433   9304   6437      0    -28      0  -8981      0      0    572    144     30    233" 
filename "FPWW0220322_RGB1_20180702_133914" 
coordinates "32227  19436   9345   6405      0    -33      0  -8981      0      0    573    145     38    364" 
filename "FPWW0220323_RGB1_20180702_133934" 
coordinates "32239  17438   9385   6372      0    -39      0  -8981      0      0    573    145     94    438" 
filename "FPWW0220324_RGB1_20180702_133950" 
coordinates "32251  15438   9425   6338      0    -43      0  -8981      0      0    573    145    104    442" 
filename "FPWW0220325_RGB1_20180702_134008" 
coordinates "32264  13435   9465   6304      0    -48      0  -8981      0      0    573    145     79    497" 
filename "FPWW0220326_RGB1_20180702_134026" 
coordinates "32276  11431   9506   6272      0    -53      0  -8981      0      0    573    145     49    614" 
filename "FPWW0220327_RGB1_20180702_134044" 
coordinates "32289   9425   9546   6238      0    -58      0  -8981      0      0    573    145    100    818" 
filename "FPWW0220328_RGB1_20180702_134100" 
coordinates "33763   9389   9670   6289      0    -77      0  -8981      0      0    573    145    -12    753" 
filename "FPWW0220329_RGB1_20180702_134118" 
coordinates "33751  11396   9630   6322      0    -72      0  -8981      0      0    573    145     25    725" 
filename "FPWW0220330_RGB1_20180702_134136" 
coordinates "33738  13401   9589   6355      0    -67      0  -8981      0      0    573    145     39    704" 
filename "FPWW0220331_RGB1_20180702_134154" 
coordinates "33725  15404   9550   6390      0    -62      0  -8981      0      0    573    145     15    606" 
filename "FPWW0220332_RGB1_20180702_134210" 
coordinates "33712  17406   9509   6423      0    -57      0  -8981      0      0    573    145     16    564" 
filename "FPWW0220333_RGB1_20180702_134228" 
coordinates "33699  19405   9468   6455      0    -57      0  -8981      0      0    573    145     12    500" 
filename "FPWW0220334_RGB1_20180702_134246" 
coordinates "33686  21403   9428   6489      0    -48      0  -8981      0      0    573    145      7    458" 
filename "FPWW0220335_RGB1_20180702_134304" 
coordinates "33673  23399   9388   6522      0    -43      0  -8981      0      0    572    144    -14    420" 
filename "FPWW0220336_RGB1_20180702_134320" 
coordinates "33659  25393   9352   6556      0    -38      0  -8981      0      0    572    144     -4    435" 
filename "FPWW0220337_RGB1_20180702_134338" 
coordinates "33646  27385   9331   6589      0    -33      0  -8981      0      0    572    144     18    460" 
filename "FPWW0220338_RGB1_20180702_134356" 
coordinates "33633  29375   9320   6622      0    -28      0  -8981      0      0    572    144    -12    438" 
filename "FPWW0220339_RGB1_20180702_134414" 
coordinates "33620  31363   9309   6655      0    -23      0  -8981      0      0    572    144     -7    406" 
filename "FPWW0220340_RGB1_20180702_134430" 
coordinates "33607  33349   9298   6687      0    -18      0  -8981      0      0    572    144    -88    391" 
filename "FPWW0220341_RGB1_20180702_134448" 
coordinates "33595  35334   9287   6720      0    -18      0  -8981      0      0    572    144    -59    339" 
filename "FPWW0220342_RGB1_20180702_134506" 
coordinates "33582  37317   9277   6754      0     -9      0  -8981      0      0    572    144   -120    337" 
filename "FPWW0220343_RGB1_20180702_134522" 
coordinates "33569  39298   9266   6786      0     -4      0  -8981      0      0    572    144   -121    396" 
filename "FPWW0220344_RGB1_20180702_134540" 
coordinates "33556  41276   9256   6820      0      0      0  -8981      0      0    572    144   -111    380" 
filename "FPWW0220345_RGB1_20180702_134558" 
coordinates "33543  43254   9294   6901      0    -10      0  -8981      0      0    572    144   -167    277" 
filename "FPWW0220346_RGB1_20180702_134616" 
coordinates "35006  43237   9349   6901      0    -10      0  -8981      0      0    572    144   -151    207" 
filename "FPWW0220347_RGB1_20180702_134634" 
coordinates "35019  41259   9360   6869      0    -18      0  -8981      0      0    572    144   -132    132" 
filename "FPWW0220348_RGB1_20180702_134650" 
coordinates "35033  39279   9370   6835      0    -23      0  -8981      0      0    572    144   -153     86" 
filename "FPWW0220349_RGB1_20180702_134708" 
coordinates "35047  37297   9381   6803      0    -28      0  -8981      0      0    572    144    -67    108" 
filename "FPWW0220350_RGB1_20180702_134726" 
coordinates "35060  35313   9392   6770      0    -33      0  -8981      0      0    572    144   -123    124" 
filename "FPWW0220351_RGB1_20180702_134742" 
coordinates "35074  33327   9402   6736      0    -38      0  -8981      0      0    572    144    -32     99" 
filename "FPWW0220352_RGB1_20180702_134800" 
coordinates "35088  31340   9413   6703      0    -43      0  -8981      0      0    572    144    -18    155" 
filename "FPWW0220353_RGB1_20180702_134818" 
coordinates "35101  29351   9424   6671      0    -48      0  -8981      0      0    572    144    -37    158" 
filename "FPWW0220354_RGB1_20180702_134836" 
coordinates "35115  27359   9440   6638      0    -48      0  -8981      0      0    572    144    -57    198" 
filename "FPWW0220355_RGB1_20180702_134854" 
coordinates "35129  25366   9471   6604      0    -57      0  -8981      0      0    572    144    -27    174" 
filename "FPWW0220356_RGB1_20180702_134912" 
coordinates "35143  23371   9510   6571      0    -62      0  -8981      0      0    573    145      0    239" 
filename "FPWW0220357_RGB1_20180702_134928" 
coordinates "35156  21375   9551   6539      0    -67      0  -8981      0      0    573    145     36    285" 
filename "FPWW0220358_RGB1_20180702_134946" 
coordinates "35170  19376   9591   6505      0    -72      0  -8981      0      0    573    145     57    370" 
filename "FPWW0220359_RGB1_20180702_135004" 
coordinates "35184  17375   9631   6472      0    -77      0  -8981      0      0    573    145     70    403" 
filename "FPWW0220360_RGB1_20180702_135020" 
coordinates "35198  15373   9672   6439      0    -82      0  -8981      0      0    573    145     76    414" 
filename "FPWW0220361_RGB1_20180702_135038" 
coordinates "35211  13368   9712   6405      0    -87      0  -8981      0      0    573    145    100    485" 
filename "FPWW0220362_RGB1_20180702_135450" 
coordinates "35225  11362   9752   6371      0    -92      0  -8981      0      0    573    145     96    638" 
filename "FPWW0220363_RGB1_20180702_135508" 
coordinates "35239   9354   9793   6338      0    -97      0  -8981      0      0    573    145     84    734" 
filename "FPWW0220364_RGB1_20180702_135526" 
coordinates "36716   9318   9916   6388      0   -117      0  -8981      0      0    573    145    -30    751" 
filename "FPWW0220365_RGB1_20180702_135548" 
coordinates "36703  11326   9877   6423      0   -111      0  -8981      0      0    573    145     49    687" 
filename "FPWW0220366_RGB1_20180702_135604" 
coordinates "36688  13334   9836   6456      0   -106      0  -8981      0      0    573    145     46    648" 
filename "FPWW0220367_RGB1_20180702_135622" 
coordinates "36674  15339   9796   6490      0   -101      0  -8981      0      0    573    145     47    688" 
filename "FPWW0220368_RGB1_20180702_135642" 
coordinates "36659  17343   9756   6524      0    -96      0  -8981      0      0    573    145     31    598" 
filename "FPWW0220369_RGB1_20180702_135700" 
coordinates "36645  19344   9715   6556      0    -91      0  -8981      0      0    573    145     20    490" 
filename "FPWW0220370_RGB1_20180702_135718" 
coordinates "36630  21344   9674   6589      0    -91      0  -8981      0      0    573    145     23    491" 
filename "FPWW0220371_RGB1_20180702_135742" 
coordinates "36616  23342   9634   6623      0    -82      0  -8981      0      0    573    145    -29    479" 
filename "FPWW0220372_RGB1_20180702_135804" 
coordinates "36602  25338   9593   6655      0    -77      0  -8981      0      0    573    145     28    464" 
filename "FPWW0220373_RGB1_20180702_135826" 
coordinates "36587  27332   9556   6688      0    -72      0  -8981      0      0    572    144     47    397" 
filename "FPWW0220374_RGB1_20180702_135848" 
coordinates "36573  29324   9534   6722      0    -67      0  -8981      0      0    572    144    -29    405" 
filename "FPWW0220375_RGB1_20180702_135912" 
coordinates "36558  31315   9521   6756      0    -62      0  -8981      0      0    572    144    -26    411" 
filename "FPWW0220376_RGB1_20180702_135934" 
coordinates "36544  33303   9510   6789      0    -57      0  -8981      0      0    572    144    -40    401" 
filename "FPWW0220377_RGB1_20180702_135952" 
coordinates "36530  35290   9499   6821      0    -52      0  -8981      0      0    572    144    -38    399" 
filename "FPWW0220378_RGB1_20180702_140014" 
coordinates "36515  37275   9488   6854      0    -47      0  -8981      0      0    572    144   -110    318" 
filename "ETH_KP_RGB10376" 
coordinates "36501  39258   9477   6887      0    -47      0  -8981      0      0    572    144   -115    371" 
filename "ETH_KP_RGB10377" 
coordinates "36487  41239   9466   6919      0    -38      0  -8981      0      0    572    144   -129    354" 
filename "ETH_KP_RGB10378" 
coordinates "36472  43218   9455   6952      0    -33      0  -8981      0      0    572    144   -106    328" 
